name,code,provincia_id/code
"El Carmen","16104","16100"
"Chillán Viejo","16103","16100"
"Pinto","16106","16100"
"Olmué","05803","05800"
"Villa Alemana","05804","05800"
"Limache","05802","05800"
"Quilpué","05801","05800"
"Putre","15201","15200"
"General Lagos","15202","15200"
"Arica","15101","15100"
"Camarones","15102","15100"
"La Unión","14201","14200"
"Río Bueno","14204","14200"
"Futrono","14202","14200"
"Lago Ranco","14203","14200"
"Lanco","14103","14100"
"Corral","14102","14100"
"Valdivia","14101","14100"
"Los Lagos","14104","14100"
"Máfil","14105","14100"
"Paillaco","14107","14100"
"Panguipulli","14108","14100"
"Mariquina","14106","14100"
"Talagante","13601","13600"
"Peñaflor","13605","13600"
"Padre Hurtado","13604","13600"
"Isla De Maipo","13603","13600"
"El Monte","13602","13600"
"Curacaví","13503","13500"
"Alhué","13502","13500"
"San Pedro","13505","13500"
"Melipilla","13501","13500"
"María Pinto","13504","13500"
"Buin","13402","13400"
"Calera De Tango","13403","13400"
"Paine","13404","13400"
"San Bernardo","13401","13400"
"Lampa","13302","13300"
"Colina","13301","13300"
"Til Til","13303","13300"
"Puente Alto","13201","13200"
"Pirque","13202","13200"
"San José De Maipo","13203","13200"
"La Pintana","13112","13100"
"La Reina","13113","13100"
"Las Condes","13114","13100"
"Lo Barnechea","13115","13100"
"Lo Espejo","13116","13100"
"Lo Prado","13117","13100"
"Macul","13118","13100"
"Maipú","13119","13100"
"Ñuñoa","13120","13100"
"Pedro Aguirre Cerda","13121","13100"
"Peñalolén","13122","13100"
"Providencia","13123","13100"
"Pudahuel","13124","13100"
"Quilicura","13125","13100"
"Quinta Normal","13126","13100"
"Recoleta","13127","13100"
"Renca","13128","13100"
"San Joaquín","13129","13100"
"Curaco De Vélez","10204","10200"
"Dalcahue","10205","10200"
"Puqueldón","10206","10200"
"Queilén","10207","10200"
"Quemchi","10209","10200"
"Quinchao","10210","10200"
"Castro","10201","10200"
"Quellón","10208","10200"
"Puerto Montt","10101","10100"
"Calbuco","10102","10100"
"Cochamó","10103","10100"
"Fresia","10104","10100"
"Frutillar","10105","10100"
"Los Muermos","10106","10100"
"Llanquihue","10107","10100"
"Maullín","10108","10100"
"Puerto Varas","10109","10100"
"Angol","09201","09200"
"Collipulli","09202","09200"
"Curacautín","09203","09200"
"Ercilla","09204","09200"
"Lonquimay","09205","09200"
"Victoria","09211","09200"
"Lumaco","09207","09200"
"Purén","09208","09200"
"Renaico","09209","09200"
"Traiguén","09210","09200"
"Los Sauces","09206","09200"
"Carahue","09102","09100"
"Cunco","09103","09100"
"Curarrehue","09104","09100"
"Freire","09105","09100"
"Galvarino","09106","09100"
"Gorbea","09107","09100"
"Lautaro","09108","09100"
"Loncoche","09109","09100"
"Melipeuco","09110","09100"
"Nueva Imperial","09111","09100"
"Padre Las Casas","09112","09100"
"Perquenco","09113","09100"
"Pitrufquén","09114","09100"
"Pucón","09115","09100"
"Saavedra","09116","09100"
"Teodoro Schmidt","09117","09100"
"Toltén","09118","09100"
"Vilcún","09119","09100"
"Villarrica","09120","09100"
"Cholchol","09121","09100"
"Temuco","09101","09100"
"Yumbel","08313","08300"
"Alto Biobío","08314","08300"
"Santa Bárbara","08311","08300"
"San Rosendo","08310","08300"
"Quilleco","08309","08300"
"Río Negro","10305","10300"
"Osorno","10301","10300"
"Puerto Octay","10302","10300"
"Purranque","10303","10300"
"Ancud","10202","10200"
"Chonchi","10203","10200"
"Quilaco","08308","08300"
"Negrete","08307","08300"
"Nacimiento","08306","08300"
"Mulchén","08305","08300"
"Laja","08304","08300"
"Cabrero","08303","08300"
"Antuco","08302","08300"
"Los Angeles","08301","08300"
"Tucapel","08312","08300"
"Los Alamos","08206","08200"
"Curanilahue","08205","08200"
"Contulmo","08204","08200"
"Cañete","08203","08200"
"Arauco","08202","08200"
"Lebu","08201","08200"
"Tirua","08207","08200"
"Coronel","08102","08100"
"Hualpén","08112","08100"
"Tomé","08111","08100"
"Talcahuano","08110","08100"
"Santa Juana","08109","08100"
"San Pedro De La Paz","08108","08100"
"Penco","08107","08100"
"Lota","08106","08100"
"Hualqui","08105","08100"
"Florida","08104","08100"
"Chiguayante","08103","08100"
"Concepción","08101","08100"
"Linares","07401","07400"
"Colbún","07402","07400"
"Longaví","07403","07400"
"Parral","07404","07400"
"Retiro","07405","07400"
"San Javier","07406","07400"
"Villa Alegre","07407","07400"
"Yerbas Buenas","07408","07400"
"Hualañé","07302","07300"
"Teno","07308","07300"
"Curicó","07301","07300"
"Vichuquén","07309","07300"
"Licantén","07303","07300"
"Molina","07304","07300"
"Rauco","07305","07300"
"Romeral","07306","07300"
"Sagrada Familia","07307","07300"
"Chanco","07202","07200"
"Pelluhue","07203","07200"
"Cauquenes","07201","07200"
"Talca","07101","07100"
"Pelarco","07106","07100"
"Maule","07105","07100"
"Empedrado","07104","07100"
"Curepto","07103","07100"
"Constitución","07102","07100"
"Río Claro","07108","07100"
"San Clemente","07109","07100"
"San Rafael","07110","07100"
"Pencahue","07107","07100"
"Chimbarongo","06303","06300"
"Nancagua","06305","06300"
"San Fernando","06301","06300"
"Chépica","06302","06300"
"Lolol","06304","06300"
"Pumanque","06309","06300"
"Santa Cruz","06310","06300"
"Placilla","06308","06300"
"Peralillo","06307","06300"
"Palmilla","06306","06300"
"Pichilemu","06201","06200"
"La Estrella","06202","06200"
"Litueche","06203","06200"
"Marchihue","06204","06200"
"Navidad","06205","06200"
"Paredones","06206","06200"
"San Vicente","06117","06100"
"Requinoa","06116","06100"
"Rengo","06115","06100"
"Pichidegua","06113","06100"
"Peumo","06112","06100"
"Olivar","06111","06100"
"Mostazal","06110","06100"
"Malloa","06109","06100"
"Machalí","06108","06100"
"Las Cabras","06107","06100"
"Graneros","06106","06100"
"Doñihue","06105","06100"
"Coltauco","06104","06100"
"Coinco","06103","06100"
"Codegua","06102","06100"
"Rancagua","06101","06100"
"Quinta De Tilcoco","06114","06100"
"Putaendo","05705","05700"
"Panquehue","05704","05700"
"Llay Llay","05703","05700"
"Catemu","05702","05700"
"San Felipe","05701","05700"
"Santa María","05706","05700"
"Cartagena","05603","05600"
"El Quisco","05604","05600"
"El Tabo","05605","05600"
"Santo Domingo","05606","05600"
"San Antonio","05601","05600"
"Algarrobo","05602","05600"
"Calera","05502","05500"
"Hijuelas","05503","05500"
"La Cruz","05504","05500"
"Nogales","05506","05500"
"Quillota","05501","05500"
"La Ligua","05401","05400"
"Zapallar","05405","05400"
"Papudo","05403","05400"
"Petorca","05404","05400"
"Cabildo","05402","05400"
"Rinconada","05303","05300"
"Calle Larga","05302","05300"
"Los Andes","05301","05300"
"San Esteban","05304","05300"
"Isla De Pascua","05201","05200"
"Valparaíso","05101","05100"
"Casablanca","05102","05100"
"Concón","05103","05100"
"Juan Fernández","05104","05100"
"Puchuncaví","05105","05100"
"Viña Del Mar","05109","05100"
"Quintero","05107","05100"
"Ovalle","04301","04300"
"Combarbalá","04302","04300"
"Monte Patria","04303","04300"
"Punitaqui","04304","04300"
"Río Hurtado","04305","04300"
"Salamanca","04204","04200"
"Los Vilos","04203","04200"
"Illapel","04201","04200"
"Canela","04202","04200"
"Paihuano","04105","04100"
"La Higuera","04104","04100"
"Andacollo","04103","04100"
"Coquimbo","04102","04100"
"La Serena","04101","04100"
"Vicuña","04106","04100"
"Alto Del Carmen","03302","03300"
"Huasco","03304","03300"
"Vallenar","03301","03300"
"Freirina","03303","03300"
"Diego De Almagro","03202","03200"
"Chañaral","03201","03200"
"Copiapó","03101","03100"
"Caldera","03102","03100"
"Tierra Amarilla","03103","03100"
"Tocopilla","02301","02300"
"María Elena","02302","02300"
"Ollague","02202","02200"
"San Pedro De Atacama","02203","02200"
"Calama","02201","02200"
"Sierra Gorda","02103","02100"
"Antofagasta","02101","02100"
"Taltal","02104","02100"
"Mejillones","02102","02100"
"Pozo Almonte","01401","01400"
"Camiña","01402","01400"
"Huara","01404","01400"
"Pica","01405","01400"
"Colchane","01403","01400"
"Iquique","01101","01100"
"Alto Hospicio","01107","01100"
"San Nicolás","16305","16300"
"San Fabián","16304","16300"
"Ñiquén","16303","16300"
"Coihueco","16302","16300"
"San Carlos","16301","16300"
"Trehuaco","16207","16200"
"Ranquil","16206","16200"
"Portezuelo","16205","16200"
"Ninhue","16204","16200"
"Coelemu","16203","16200"
"Cobquecura","16202","16200"
"Quirihue","16201","16200"
"Yungay","16109","16100"
"Chillán","16101","16100"
"San Ignacio","16108","16100"
"Quillón","16107","16100"
"Bulnes","16102","16100"
"Pemuco","16105","16100"
"San Miguel","13130","13100"
"San Ramón","13131","13100"
"Vitacura","13132","13100"
"Santiago","13101","13100"
"Cerrillos","13102","13100"
"Cerro Navia","13103","13100"
"Conchalí","13104","13100"
">El Bosque","13105","13100"
"Estación Central","13106","13100"
"Huechuraba","13107","13100"
"Independencia","13108","13100"
"La Cisterna","13109","13100"
"La Florida","13110","13100"
"La Granja","13111","13100"
"Natales","12401","12400"
"Torres Del Paine","12402","12400"
"Primavera","12302","12300"
"Porvenir","12301","12300"
"Timaukel","12303","12300"
"Cabo De Hornos","12201","12200"
"Antártica","12202","12200"
"San Gregorio","12104","12100"
"Río Verde","12103","12100"
"Laguna Blanca","12102","12100"
"Punta Arenas","12101","12100"
"Río Ibáñez","11402","11400"
"Chile Chico","11401","11400"
"Cochrane","11301","11300"
"Ohiggins","11302","11300"
"Tortel","11303","11300"
"Cisnes","11202","11200"
"Aisén","11201","11200"
"Guaitecas","11203","11200"
"Lago Verde","11102","11100"
"Coihaique","11101","11100"
"Futaleufú","10402","10400"
"Palena","10404","10400"
"Hualaihue","10403","10400"
"Chaitén","10401","10400"
"San Pablo","10307","10300"
"San Juan De La Costa","10306","10300"
"Puyehue","10304","10300"